,1d,1w,1m,2m,3m,6m,1yr
2018-11-01,2.173,2.21238,2.30688,2.39638,2.5585,2.80013,3.08375
2018-11-02,2.17538,2.21788,2.31356,2.418,2.5815,2.8165,3.09613
2018-11-03,2.17538,2.21788,2.31356,2.418,2.5815,2.8165,3.09613
2018-11-04,2.17538,2.21788,2.31356,2.418,2.5815,2.8165,3.09613
2018-11-05,2.17463,2.214,2.31788,2.42625,2.59238,2.82888,3.10488
2018-11-06,2.17525,2.21425,2.316,2.4295,2.58925,2.83575,3.11688
2018-11-07,2.17663,2.21138,2.31688,2.42863,2.59125,2.8415,3.11638
2018-11-08,2.17725,2.21588,2.31531,2.4455,2.60113,2.8435,3.12513
2018-11-09,2.17988,2.21619,2.31844,2.45863,2.61463,2.85763,3.14075
2018-11-10,2.17988,2.21619,2.31844,2.45863,2.61463,2.85763,3.14075
2018-11-11,2.17988,2.21619,2.31844,2.45863,2.61463,2.85763,3.14075
2018-11-12,2.175,2.21913,2.31438,2.45513,2.61813,2.858,3.14413
2018-11-13,2.175,2.2155,2.30663,2.44525,2.61413,2.85538,3.13475
2018-11-14,2.17788,2.21613,2.3065,2.44413,2.61613,2.855,3.13206
2018-11-15,2.17575,2.20963,2.31038,2.44531,2.629,2.86344,3.12963
2018-11-16,2.17938,2.21125,2.3025,2.44913,2.64,2.86019,3.11838
2018-11-17,2.17938,2.21125,2.3025,2.44913,2.64,2.86019,3.11838
2018-11-18,2.17938,2.21125,2.3025,2.44913,2.64,2.86019,3.11838
2018-11-19,2.17538,2.21225,2.30088,2.45213,2.6445,2.86263,3.12363
2018-11-20,2.18075,2.21725,2.30025,2.45769,2.64581,2.86575,3.10738
2018-11-21,2.17288,2.21638,2.3055,2.4585,2.65313,2.86325,3.09713
2018-11-22,2.1805,2.221,2.31513,2.47313,2.67694,2.88588,3.11038
2018-11-23,2.1805,2.22213,2.31488,2.48013,2.68925,2.88725,3.1095
2018-11-24,2.1805,2.22213,2.31488,2.48013,2.68925,2.88725,3.1095
2018-11-25,2.1805,2.22213,2.31488,2.48013,2.68925,2.88725,3.1095
2018-11-26,2.177,2.22188,2.32188,2.49538,2.69119,2.88625,3.12075
2018-11-27,2.183,2.219,2.33675,2.49525,2.70681,2.89275,3.12838
2018-11-28,2.1785,2.23494,2.34931,2.499,2.706,2.88444,3.13075
2018-11-29,2.1825,2.2245,2.34463,2.495,2.70663,2.88663,3.13413
2018-11-30,2.18275,2.22881,2.34925,2.51125,2.73813,2.88519,3.11869
2018-12-01,2.18275,2.22881,2.34925,2.51125,2.73813,2.88519,3.11869
2018-12-02,2.18275,2.22881,2.34925,2.51125,2.73813,2.88519,3.11869
2018-12-03,2.1775,2.22131,2.34694,2.51006,2.73613,2.89463,3.12025
2018-12-04,2.18188,2.21619,2.37888,2.53656,2.75125,2.89525,3.13819
2018-12-05,2.17613,2.226,2.3795,2.53625,2.73888,2.89638,3.13294
2018-12-06,2.17188,2.22606,2.38325,2.54275,2.76575,2.89113,3.12575
2018-12-07,2.18238,2.23344,2.38694,2.54044,2.76713,2.88906,3.11194
2018-12-08,2.18238,2.23344,2.38694,2.54044,2.76713,2.88906,3.11194
2018-12-09,2.18238,2.23344,2.38694,2.54044,2.76713,2.88906,3.11194
2018-12-10,2.18088,2.21425,2.40019,2.54525,2.77106,2.88581,3.10056
2018-12-11,2.182,2.21025,2.4205,2.56763,2.77594,2.87788,3.084
2018-12-12,2.18213,2.2065,2.43238,2.57981,2.779,2.88063,3.0895
2018-12-13,2.18475,2.21988,2.44013,2.58494,2.7775,2.89225,3.10125
2018-12-14,2.18438,2.27638,2.45513,2.58863,2.78819,2.90088,3.11238
2018-12-15,2.18438,2.27638,2.45513,2.58863,2.78819,2.90088,3.11238
2018-12-16,2.18438,2.27638,2.45513,2.58863,2.78819,2.90088,3.11238
2018-12-17,2.18475,2.28075,2.455,2.588,2.80069,2.90056,3.09769
2018-12-18,2.18125,2.299,2.46963,2.59063,2.80363,2.90463,3.10388
2018-12-19,2.18025,2.369,2.47013,2.58725,2.792,2.87638,3.06131
2018-12-20,2.18175,2.36813,2.47938,2.58956,2.78963,2.87088,3.05275
2018-12-21,2.38788,2.40838,2.50375,2.61738,2.82375,2.9,3.06544
2018-12-22,2.38788,2.40838,2.50375,2.61738,2.82375,2.9,3.06544
2018-12-23,2.38788,2.40838,2.50375,2.61738,2.82375,2.9,3.06544
2018-12-24,2.39163,2.416,2.50625,2.61188,2.82163,2.90788,3.07313
2018-12-25,2.38988,2.41863,2.50563,2.61175,2.81344,2.89375,3.04788
2018-12-26,2.38988,2.41863,2.50563,2.61175,2.81344,2.89375,3.04788
2018-12-27,2.38988,2.41863,2.50563,2.61175,2.81344,2.89375,3.04788
2018-12-28,2.391,2.41963,2.52238,2.619,2.803,2.883,3.03238
2018-12-29,2.391,2.41963,2.52238,2.619,2.803,2.883,3.03238
2018-12-30,2.391,2.41963,2.52238,2.619,2.803,2.883,3.03238
2018-12-31,2.39238,2.41588,2.51988,2.6195,2.797,2.87313,3.01313
